%YAML 1.1
%TAG !u! tag:unity3d.com,2011:
--- !u!1 &185572
GameObject:
  m_ObjectHideFlags: 0
  m_PrefabParentObject: {fileID: 0}
  m_PrefabInternal: {fileID: 100100000}
  serializedVersion: 4
  m_Component:
  - 4: {fileID: 479268}
  - 212: {fileID: 21297852}
  - 61: {fileID: 6159496}
  - 114: {fileID: 11471270}
  m_Layer: 8
  m_Name: Wall4
  m_TagString: Untagged
  m_Icon: {fileID: 0}
  m_NavMeshLayer: 0
  m_StaticEditorFlags: 0
  m_IsActive: 1
--- !u!4 &479268
Transform:
  m_ObjectHideFlags: 1
  m_PrefabParentObject: {fileID: 0}
  m_PrefabInternal: {fileID: 100100000}
  m_GameObject: {fileID: 185572}
  m_LocalRotation: {x: 0, y: 0, z: 0, w: 1}
  m_LocalPosition: {x: 0, y: 0, z: 0}
  m_LocalScale: {x: 1, y: 1, z: 1}
  m_Children: []
  m_Father: {fileID: 0}
  m_RootOrder: 0
--- !u!61 &6159496
BoxCollider2D:
  m_ObjectHideFlags: 1
  m_PrefabParentObject: {fileID: 0}
  m_PrefabInternal: {fileID: 100100000}
  m_GameObject: {fileID: 185572}
  m_Enabled: 1
  m_Material: {fileID: 0}
  m_IsTrigger: 0
  m_UsedByEffector: 0
  m_Offset: {x: 0, y: 0}
  serializedVersion: 2
  m_Size: {x: 1, y: 1}
--- !u!114 &11471270
MonoBehaviour:
  m_ObjectHideFlags: 1
  m_PrefabParentObject: {fileID: 0}
  m_PrefabInternal: {fileID: 100100000}
  m_GameObject: {fileID: 185572}
  m_Enabled: 1
  m_EditorHideFlags: 0
  m_Script: {fileID: 11500000, guid: 344c0da06893d473cbe25d9f569bdd41, type: 3}
  m_Name: 
  m_EditorClassIdentifier: 
  dmgSprite: {fileID: 21300102, guid: fbe1e7b94bb1a4a099d5bcb15a00141c, type: 3}
  hp: 4
  chopSound1: {fileID: 8300000, guid: 4c2332bc8245b474dad63074059bb755, type: 3}
  chopSound2: {fileID: 8300000, guid: f6aaac83be9e0493493aace800b76619, type: 3}
--- !u!212 &21297852
SpriteRenderer:
  m_ObjectHideFlags: 1
  m_PrefabParentObject: {fileID: 0}
  m_PrefabInternal: {fileID: 100100000}
  m_GameObject: {fileID: 185572}
  m_Enabled: 1
  m_CastShadows: 0
  m_ReceiveShadows: 0
  m_Materials:
  - {fileID: 10754, guid: 0000000000000000e000000000000000, type: 0}
  m_SubsetIndices: 
  m_StaticBatchRoot: {fileID: 0}
  m_UseLightProbes: 0
  m_ReflectionProbeUsage: 0
  m_ProbeAnchor: {fileID: 0}
  m_ScaleInLightmap: 1
  m_PreserveUVs: 0
  m_ImportantGI: 0
  m_AutoUVMaxDistance: .5
  m_AutoUVMaxAngle: 89
  m_LightmapParameters: {fileID: 0}
  m_SortingLayerID: 1861650685
  m_SortingOrder: 0
  m_Sprite: {fileID: 21300048, guid: fbe1e7b94bb1a4a099d5bcb15a00141c, type: 3}
  m_Color: {r: 1, g: 1, b: 1, a: 1}
--- !u!1001 &100100000
Prefab:
  m_ObjectHideFlags: 1
  serializedVersion: 2
  m_Modification:
    m_TransformParent: {fileID: 0}
    m_Modifications:
    - target: {fileID: 0}
      propertyPath: dmgSprite
      value: 
      objectReference: {fileID: 21300102, guid: fbe1e7b94bb1a4a099d5bcb15a00141c,
        type: 3}
    - target: {fileID: 0}
      propertyPath: chopSound1
      value: 
      objectReference: {fileID: 8300000, guid: 4c2332bc8245b474dad63074059bb755, type: 3}
    - target: {fileID: 0}
      propertyPath: chopSound2
      value: 
      objectReference: {fileID: 8300000, guid: f6aaac83be9e0493493aace800b76619, type: 3}
    m_RemovedComponents: []
  m_ParentPrefab: {fileID: 0}
  m_RootGameObject: {fileID: 185572}
  m_IsPrefabParent: 1
